{
    "mdcf": "1.0.0",
    "id": "",
    "url": "",
    "name": "otus-mobile-bff",
    "description": "Makes FE life easier",
    "capabilities": [
        "Bff for all mobile devices"
    ],
    "implementation": {
        "qualities": [
            "HTTP REST compatable"
        ],
        "logic": [
            "Makes all microservices API calls for sake of decrease FE <-> BE network communications",
            "Gives FE minimal product information"
        ],
        "data": []
    },
    "dependencies": {
        "serviceDependencies": [
            "Product service API: GET getProductDescription",
            "Product service API: GET getProductCard",
            "Warehouse service API: GET getUnitByProductId"
        ],
        "eventsSubscriptions": []
    },
    "interface": {
        "queries": [
            "GET /api/v1/mobile/unit/{id}"
        ],
        "commands": [],
        "eventsPublished": []
    }
}