{
    "mdcf": "1.0.0",
    "id": "",
    "url": "",
    "name": "otus-order-service",
    "description": "Order lifecycle",
    "capabilities": [
        "Working with user orders"
    ],
    "implementation": {
        "qualities": [
            "HTTP REST compatable"
        ],
        "logic": [
            "Order statemachine",
            "Searching orders"
        ],
        "data": [
            "rdms: postgres",
            "scheme :order1",
            "table: item1",
            "table: order1",
            "table: permission1"
        ]
    },
    "dependencies": {
        "serviceDependencies": [],
        "eventsSubscriptions": []
    },
    "interface": {
        "queries": [
            "GET /api/v1/order/{id}",
            "GET /api/v1/order?created=10-02-2021&page=0&limit=20"
        ],
        "commands": [
            "POST /api/v1/order -d {order}",
            "POST /api/v1/order/1/item -d {item}",
            "POST /api/v1/order/1/payment",
            "PUT /api/v1/order/1 -d {order}",
            "PUT /api/v1/order/1/item -d {item}",
            "DELETE /api/v1/order/1/item/2",
            "DELETE /api/v1/order/1"
        ],
        "eventsPublished": [
            "order-payment-ready"
        ]
    }
}