{
    "mdcf": "1.0.0",
    "id": "",
    "url": "",
    "name": "otus-auth-service",
    "description": "Authorization user service",
    "capabilities": [
        "Working with user accounts",
        "Used by gateway to authenticate users"
    ],
    "implementation": {
        "qualities": [
            "HTTP REST compatable",
            "Unique access point for load-balancing and firewall rules config"
        ],
        "logic": [
            "User registration",
            "User login\\logout",
            "Authenticate user requests",
            "Get account info"
        ],
        "data": [
            "rdms: postgres",
            "scheme :order1",
            "table: registered_user"
        ]
    },
    "dependencies": {
        "serviceDependencies": [],
        "eventsSubscriptions": [
            "order-payment-resulted"
        ]
    },
    "interface": {
        "queries": [
            "GET /api/v1/auth -H {cookie}"
        ],
        "commands": [
            "POST /api/v1/customer/registration -d {user}",
            "POST /api/v1/customer/login -d {credentials}",
            "DELETE /api/v1/logout -H {cookie}"
        ],
        "eventsPublished": [
            "registration-request-received",
            "notification-order-enriched"
        ]
    }
}